[
     {"mode": "NULLABLE", "name": "MASTER_ID" , "type": "STRING", "description": null} ,
     {"mode": "NULLABLE", "name": "GUID" , "type": "STRING", "description": null} ,
     {"mode": "NULLABLE", "name": "ORIGIN" , "type": "STRING", "description": null} ,
     {"mode": "NULLABLE", "name": "COUNTRY" , "type": "STRING", "description": null} ,
     {"mode": "NULLABLE", "name": "AGE" , "type": "INTEGER", "description": null} ,
     {"mode": "NULLABLE", "name": "JOIN_YEAR" , "type": "INTEGER", "description": null} ,
     {"mode": "NULLABLE", "name": "DEV_COUNT_P" , "type": "INTEGER", "description": null} ,
     {"mode": "NULLABLE", "name": "DEV_COUNT_T" , "type": "INTEGER", "description": null} ,
     {"mode": "NULLABLE", "name": "DEV_COUNT_V" , "type": "INTEGER", "description": null} ,
     {"mode": "NULLABLE", "name": "FLAGSHIP_DVC_CNT" , "type": "INTEGER", "description": null} ,
     {"mode": "NULLABLE", "name": "FLAG_S_DVC_CNT" , "type": "INTEGER", "description": null} ,
     {"mode": "NULLABLE", "name": "FLAG_N_DVC_CNT" , "type": "INTEGER", "description": null} ,
     {"mode": "NULLABLE", "name": "MAX_PRICE" , "type": "FLOAT", "description": null} ,
     {"mode": "NULLABLE", "name": "AVG_PRICE" , "type": "FLOAT", "description": null} ,
     {"mode": "NULLABLE", "name": "MIN_ADOPT_MM" , "type": "INTEGER", "description": null} ,
     {"mode": "NULLABLE", "name": "CHANGE_TERM_P" , "type": "INTEGER", "description": null} ,
     {"mode": "NULLABLE", "name": "LAST_DVC_GP_NM" , "type": "STRING", "description": null} ,
     {"mode": "NULLABLE", "name": "LASTBEF_DVC_GP_NM" , "type": "STRING", "description": null} ,
     {"mode": "NULLABLE", "name": "HOLD_TERM_P" , "type": "INTEGER", "description": null} ,
     {"mode": "NULLABLE", "name": "SHEALTH_FLG" , "type": "STRING", "description": null} ,
     {"mode": "NULLABLE", "name": "SPAY_FLG" , "type": "STRING", "description": null} ,
     {"mode": "NULLABLE", "name": "MEMBERS_FLG" , "type": "STRING", "description": null} ,
     {"mode": "NULLABLE", "name": "SHEALTH_DT" , "type": "DATETIME", "description": null} ,
     {"mode": "NULLABLE", "name": "SPAY_DT" , "type": "DATETIME", "description": null} ,
     {"mode": "NULLABLE", "name": "MEMBERS_DT" , "type": "DATETIME", "description": null} ,
     {"mode": "NULLABLE", "name": "APPS_DT" , "type": "DATETIME", "description": null} ,
     {"mode": "NULLABLE", "name": "THEME_DT" , "type": "DATETIME", "description": null} ,
     {"mode": "NULLABLE", "name": "EMAIL_FLG" , "type": "STRING", "description": null} ,
     {"mode": "NULLABLE", "name": "RCNT_MNS3_SVC_VST_NTS" , "type": "INTEGER", "description": null} ,
     {"mode": "NULLABLE", "name": "RCNT_MNS3_SVC_VST_DYS" , "type": "INTEGER", "description": null} ,
     {"mode": "NULLABLE", "name": "RCNT_MNS3_CTNT_DOWN_CNT" , "type": "INTEGER", "description": null} ,
     {"mode": "NULLABLE", "name": "MKT_DVC_GP_NM" , "type": "STRING", "description": null} ,
     {"mode": "NULLABLE", "name": "MKT_DVC_SERIES_NM" , "type": "STRING", "description": null} ,
     {"mode": "NULLABLE", "name": "MKT_DVC_IMEI_ADDR" , "type": "STRING", "description": null} ,
     {"mode": "NULLABLE", "name": "ACTIVE_FLG" , "type": "STRING", "description": null} ,
     {"mode": "NULLABLE", "name": "SP_FLAGSHIP_CNT" , "type": "INTEGER", "description": null} ,
     {"mode": "NULLABLE", "name": "SP_DVC_CNT" , "type": "INTEGER", "description": null} ,
     {"mode": "NULLABLE", "name": "SP_NOTE7_CNT" , "type": "INTEGER", "description": null} ,
     {"mode": "NULLABLE", "name": "INACTIVE_TERM" , "type": "STRING", "description": null} ,
     {"mode": "NULLABLE", "name": "PRICE_KEY" , "type": "STRING", "description": null} ,
     {"mode": "NULLABLE", "name": "CNT_SVC_ALL_6M" , "type": "INTEGER", "description": null} ,
     {"mode": "NULLABLE", "name": "CNT_SVC_IM_6M" , "type": "INTEGER", "description": null} ,
     {"mode": "NULLABLE", "name": "CNT_SVC_VD_6M" , "type": "INTEGER", "description": null} ,
     {"mode": "NULLABLE", "name": "CNT_SVC_CE_6M" , "type": "INTEGER", "description": null} ,
     {"mode": "NULLABLE", "name": "LAST_SVC_IM_NM" , "type": "STRING", "description": null} ,
     {"mode": "NULLABLE", "name": "LAST_SVC_IM_DT" , "type": "STRING", "description": null} ,
     {"mode": "NULLABLE", "name": "LAST_SVC_VD_NM" , "type": "STRING", "description": null} ,
     {"mode": "NULLABLE", "name": "LAST_SVC_VD_DT" , "type": "STRING", "description": null} ,
     {"mode": "NULLABLE", "name": "LAST_SVC_CE_NM" , "type": "STRING", "description": null} ,
     {"mode": "NULLABLE", "name": "LAST_SVC_CE_DT" , "type": "STRING", "description": null} ,
     {"mode": "NULLABLE", "name": "LAST_INQURY_NM" , "type": "STRING", "description": null} ,
     {"mode": "NULLABLE", "name": "LAST_INQURY_TYPE" , "type": "STRING", "description": null} ,
     {"mode": "NULLABLE", "name": "LAST_INQURY_DT" , "type": "STRING", "description": null} ,
     {"mode": "NULLABLE", "name": "LAST_INQURY_SCORE" , "type": "STRING", "description": null} ,
     {"mode": "NULLABLE", "name": "CNT_VIEW_IM_1M" , "type": "INTEGER", "description": null} ,
     {"mode": "NULLABLE", "name": "CNT_VIEW_IM_3M" , "type": "INTEGER", "description": null} ,
     {"mode": "NULLABLE", "name": "CNT_VIEW_VD_1M" , "type": "INTEGER", "description": null} ,
     {"mode": "NULLABLE", "name": "CNT_VIEW_VD_3M" , "type": "INTEGER", "description": null} ,
     {"mode": "NULLABLE", "name": "CNT_VIEW_CE_1M" , "type": "INTEGER", "description": null} ,
     {"mode": "NULLABLE", "name": "CNT_VIEW_CE_3M" , "type": "INTEGER", "description": null} ,
     {"mode": "NULLABLE", "name": "CNT_REPORT_6M" , "type": "INTEGER", "description": null} ,
     {"mode": "NULLABLE", "name": "CNT_REPORT_1M" , "type": "INTEGER", "description": null} ,
     {"mode": "NULLABLE", "name": "LAST_REPORT_DVC_NM" , "type": "STRING", "description": null} ,
     {"mode": "NULLABLE", "name": "LAST_REPORT_DT" , "type": "STRING", "description": null} ,
     {"mode": "NULLABLE", "name": "CNT_POST_1M" , "type": "INTEGER", "description": null} ,
     {"mode": "NULLABLE", "name": "CNT_PUSH_CAMPAIN_6M" , "type": "INTEGER", "description": null} ,
     {"mode": "NULLABLE", "name": "LAST_CLICK_CAMPAIN_NM" , "type": "STRING", "description": null} ,
     {"mode": "NULLABLE", "name": "LAST_CLICK_CAMPAIN_DT" , "type": "STRING", "description": null} ,
     {"mode": "NULLABLE", "name": "CNT_BUY_IM_3M" , "type": "INTEGER", "description": null} ,
     {"mode": "NULLABLE", "name": "CNT_BUY_VD_3M" , "type": "INTEGER", "description": null} ,
     {"mode": "NULLABLE", "name": "CNT_BUY_CE_3M" , "type": "INTEGER", "description": null} ,
     {"mode": "NULLABLE", "name": "LAST_BUY_IM_NM" , "type": "STRING", "description": null} ,
     {"mode": "NULLABLE", "name": "LAST_BUY_IM_DT" , "type": "STRING", "description": null} ,
     {"mode": "NULLABLE", "name": "LAST_BUY_VD_NM" , "type": "STRING", "description": null} ,
     {"mode": "NULLABLE", "name": "LAST_BUY_VD_DT" , "type": "STRING", "description": null} ,
     {"mode": "NULLABLE", "name": "LAST_BUY_CE_NM" , "type": "STRING", "description": null} ,
     {"mode": "NULLABLE", "name": "LAST_BUY_CE_DT" , "type": "STRING", "description": null} ,
     {"mode": "NULLABLE", "name": "SEG_NAME" , "type": "STRING", "description": null} ,
     {"mode": "NULLABLE", "name": "SEG_VAL_I1" , "type": "INTEGER", "description": null} ,
     {"mode": "NULLABLE", "name": "SEG_VAL_I2" , "type": "INTEGER", "description": null} ,
     {"mode": "NULLABLE", "name": "SEG_VAL_I3" , "type": "INTEGER", "description": null} ,
     {"mode": "NULLABLE", "name": "SEG_VAL_I4" , "type": "INTEGER", "description": null} ,
     {"mode": "NULLABLE", "name": "SEG_VAL_I5" , "type": "INTEGER", "description": null} ,
     {"mode": "NULLABLE", "name": "SEG_VAL_I6" , "type": "INTEGER", "description": null} ,
     {"mode": "NULLABLE", "name": "SEG_VAL_I7" , "type": "INTEGER", "description": null} ,
     {"mode": "NULLABLE", "name": "SEG_VAL_I8" , "type": "INTEGER", "description": null} ,
     {"mode": "NULLABLE", "name": "SEG_VAL_I9" , "type": "INTEGER", "description": null} ,
     {"mode": "NULLABLE", "name": "SEG_VAL_I10" , "type": "INTEGER", "description": null} ,
     {"mode": "NULLABLE", "name": "SEG_VAL_I11" , "type": "INTEGER", "description": null} ,
     {"mode": "NULLABLE", "name": "SEG_VAL_T1" , "type": "STRING", "description": null} ,
     {"mode": "NULLABLE", "name": "SEG_VAL_T2" , "type": "STRING", "description": null} ,
     {"mode": "NULLABLE", "name": "SEG_VAL_T3" , "type": "STRING", "description": null} ,
     {"mode": "NULLABLE", "name": "DVC_TB_CNT_ALL_NEW" , "type": "INTEGER", "description": null} ,
     {"mode": "NULLABLE", "name": "DVC_WR_CNT_ALL" , "type": "INTEGER", "description": null} ,
     {"mode": "NULLABLE", "name": "DVC_WR_CNT_ALL_NEW" , "type": "INTEGER", "description": null} ,
     {"mode": "NULLABLE", "name": "DVC_RF_CNT_ALL" , "type": "INTEGER", "description": null} ,
     {"mode": "NULLABLE", "name": "DVC_MB_CNT_FLAG_S_NEW" , "type": "INTEGER", "description": null} ,
     {"mode": "NULLABLE", "name": "DVC_MB_CNT_FLAG_N_NEW" , "type": "INTEGER", "description": null} ,
     {"mode": "NULLABLE", "name": "DVC_MB_CNT_NFLAG" , "type": "INTEGER", "description": null} ,
     {"mode": "NULLABLE", "name": "DVC_MB_CNT_NFLAG_NEW" , "type": "INTEGER", "description": null} ,
     {"mode": "NULLABLE", "name": "DVC_MB_CNT_NFLAG_A" , "type": "INTEGER", "description": null} ,
     {"mode": "NULLABLE", "name": "DVC_MB_CNT_NFLAG_A_NEW" , "type": "INTEGER", "description": null} ,
     {"mode": "NULLABLE", "name": "DVC_MB_CNT_NFLAG_J" , "type": "INTEGER", "description": null} ,
     {"mode": "NULLABLE", "name": "DVC_MB_CNT_NFLAG_J_NEW" , "type": "INTEGER", "description": null} ,
     {"mode": "NULLABLE", "name": "DVC_MB_CNT_NFLAG_M" , "type": "INTEGER", "description": null} ,
     {"mode": "NULLABLE", "name": "DVC_MB_CNT_NFLAG_M_NEW" , "type": "INTEGER", "description": null} ,
     {"mode": "NULLABLE", "name": "DVC_MB_CNT_NFLAG_OTHERS" , "type": "INTEGER", "description": null} ,
     {"mode": "NULLABLE", "name": "DVC_MB_CNT_NFLAG_OTHERS_NEW" , "type": "INTEGER", "description": null} ,
     {"mode": "NULLABLE", "name": "DVC_MB_CNT_PHABLET" , "type": "INTEGER", "description": null} ,
     {"mode": "NULLABLE", "name": "DVC_MB_CNT_PHABLET_FLAG" , "type": "INTEGER", "description": null} ,
     {"mode": "NULLABLE", "name": "DVC_MB_SCRN_MAX" , "type": "FLOAT", "description": null} ,
     {"mode": "NULLABLE", "name": "DVC_MB_LST_DVC_SRS_NM" , "type": "STRING", "description": null} ,
     {"mode": "NULLABLE", "name": "DVC_MB_LST_ACCO_REG_DT" , "type": "STRING", "description": null} ,
     {"mode": "NULLABLE", "name": "DVC_MB_LST_GRSP_DT" , "type": "STRING", "description": null} ,
     {"mode": "NULLABLE", "name": "DVC_MB_LST_TERM_ADOPT" , "type": "INTEGER", "description": null} ,
     {"mode": "NULLABLE", "name": "DVC_MB_LST_NET_MCC" , "type": "STRING", "description": null} ,
     {"mode": "NULLABLE", "name": "DVC_MB_LST_NET_MNC" , "type": "STRING", "description": null} ,
     {"mode": "NULLABLE", "name": "DVC_MB_LST_OLD_FLG" , "type": "STRING", "description": null} ,
     {"mode": "NULLABLE", "name": "DVC_MB_LST_OWN_CHANGE_DT" , "type": "STRING", "description": null} ,
     {"mode": "NULLABLE", "name": "DVC_MB_LST_OWN_CHANGE_GUID" , "type": "STRING", "description": null} ,
     {"mode": "NULLABLE", "name": "DVC_MB_LST_BFR_DVC_MDL_ID" , "type": "STRING", "description": null} ,
     {"mode": "NULLABLE", "name": "DVC_MB_LST_BFR_DVC_SRS_NM" , "type": "STRING", "description": null} ,
     {"mode": "NULLABLE", "name": "DVC_MB_LST_BFR_ACCO_REG_DT" , "type": "STRING", "description": null} ,
     {"mode": "NULLABLE", "name": "DVC_MB_LST_BFR_GRSP_DT" , "type": "STRING", "description": null} ,
     {"mode": "NULLABLE", "name": "DVC_MB_LST_BFR_NET_MCC" , "type": "STRING", "description": null} ,
     {"mode": "NULLABLE", "name": "DVC_MB_LST_BFR_NET_MNC" , "type": "STRING", "description": null} ,
     {"mode": "NULLABLE", "name": "DVC_MB_USE_DVC_MDL_ID" , "type": "STRING", "description": null} ,
     {"mode": "NULLABLE", "name": "DVC_MB_USE_ACCO_REG_DT" , "type": "STRING", "description": null} ,
     {"mode": "NULLABLE", "name": "DVC_MB_USE_DVC_GRSP_DT" , "type": "STRING", "description": null} ,
     {"mode": "NULLABLE", "name": "DVC_MB_USE_TERM_HOLD" , "type": "INTEGER", "description": null} ,
     {"mode": "NULLABLE", "name": "DVC_MB_USE_OLD_FLG" , "type": "STRING", "description": null} ,
     {"mode": "NULLABLE", "name": "DVC_MB_PUSH_DVC_GP_NM" , "type": "STRING", "description": null} ,
     {"mode": "NULLABLE", "name": "DVC_MB_PUSH_DVC_MDL_ID" , "type": "STRING", "description": null} ,
     {"mode": "NULLABLE", "name": "DVC_MB_PUSH_DVC_SRS_NM" , "type": "STRING", "description": null} ,
     {"mode": "NULLABLE", "name": "DVC_MB_PUSH_IMEI" , "type": "STRING", "description": null} ,
     {"mode": "NULLABLE", "name": "DVC_MB_PUSH_ACCO_REG_DT" , "type": "STRING", "description": null} ,
     {"mode": "NULLABLE", "name": "DVC_MB_PUSH_DVC_GRSP_DT" , "type": "STRING", "description": null} ,
     {"mode": "NULLABLE", "name": "DVC_MB_PUSH_TERM_HOLD" , "type": "INTEGER", "description": null} ,
     {"mode": "NULLABLE", "name": "DVC_MB_PUSH_NET_MCC" , "type": "STRING", "description": null} ,
     {"mode": "NULLABLE", "name": "DVC_MB_PUSH_NET_MNC" , "type": "STRING", "description": null} ,
     {"mode": "NULLABLE", "name": "DVC_MB_PUSH_OLD_FLG" , "type": "STRING", "description": null} ,
     {"mode": "NULLABLE", "name": "DVC_MB_TERM_INACTIVE_DT" , "type": "STRING", "description": null} ,
     {"mode": "NULLABLE", "name": "DVC_TB_LST_DVC_GP_NM" , "type": "STRING", "description": null} ,
     {"mode": "NULLABLE", "name": "DVC_TB_LST_DVC_MDL_ID" , "type": "STRING", "description": null} ,
     {"mode": "NULLABLE", "name": "DVC_TB_LST_ACCO_REG_DT" , "type": "STRING", "description": null} ,
     {"mode": "NULLABLE", "name": "DVC_TB_LST_GRSP_DT" , "type": "STRING", "description": null} ,
     {"mode": "NULLABLE", "name": "DVC_TB_LST_TERM_HOLD" , "type": "INTEGER", "description": null} ,
     {"mode": "NULLABLE", "name": "DVC_TV_LST_DVC_GP_NM" , "type": "STRING", "description": null} ,
     {"mode": "NULLABLE", "name": "DVC_TV_LST_DVC_MDL_ID" , "type": "STRING", "description": null} ,
     {"mode": "NULLABLE", "name": "DVC_TV_LST_ACCO_REG_DT" , "type": "STRING", "description": null} ,
     {"mode": "NULLABLE", "name": "DVC_TV_LST_TERM_HOLD" , "type": "INTEGER", "description": null} ,
     {"mode": "NULLABLE", "name": "DVC_RF_LST_MDL_ID" , "type": "STRING", "description": null} ,
     {"mode": "NULLABLE", "name": "DVC_RF_LST_ACCO_REG_DT" , "type": "STRING", "description": null} ,
     {"mode": "NULLABLE", "name": "DVC_RF_LST_TERM_HOLD" , "type": "INTEGER", "description": null} ,
     {"mode": "NULLABLE", "name": "DVC_WR_LST_DVC_GP_NM" , "type": "STRING", "description": null} ,
     {"mode": "NULLABLE", "name": "DVC_WR_LST_DVC_MDL_ID" , "type": "STRING", "description": null} ,
     {"mode": "NULLABLE", "name": "DVC_WR_LST_ACCO_REG_DT" , "type": "STRING", "description": null} ,
     {"mode": "NULLABLE", "name": "DVC_WR_LST_TERM_HOLD" , "type": "INTEGER", "description": null} ,
     {"mode": "NULLABLE", "name": "SVC_LGN_APPS_FLG" , "type": "STRING", "description": null} ,
     {"mode": "NULLABLE", "name": "SVC_LGN_STHEME_FLG" , "type": "STRING", "description": null} ,
     {"mode": "NULLABLE", "name": "SVC_LGN_STHINGS_FLG" , "type": "STRING", "description": null} ,
     {"mode": "NULLABLE", "name": "SVC_LGN_LST_STHINGS_MM" , "type": "STRING", "description": null} ,
     {"mode": "NULLABLE", "name": "SVC_LGN_3M_SHEALTH_FLG" , "type": "STRING", "description": null} ,
     {"mode": "NULLABLE", "name": "SVC_LGN_3M_SPAY_FLG" , "type": "STRING", "description": null} ,
     {"mode": "NULLABLE", "name": "SVC_LGN_3M_SMEMBERS_FLG" , "type": "STRING", "description": null} ,
     {"mode": "NULLABLE", "name": "SVC_LGN_3M_APPS_FLG" , "type": "STRING", "description": null} ,
     {"mode": "NULLABLE", "name": "SVC_LGN_3M_STHEME_FLG" , "type": "STRING", "description": null} ,
     {"mode": "NULLABLE", "name": "SVC_LGN_3M_STHINGS_FLG" , "type": "STRING", "description": null} ,
     {"mode": "NULLABLE", "name": "APPS_CNT_DOWN_ALL_3M" , "type": "INTEGER", "description": null} ,
     {"mode": "NULLABLE", "name": "APPS_CNT_DOWN_FREE_3M" , "type": "INTEGER", "description": null} ,
     {"mode": "NULLABLE", "name": "APPS_CNT_DOWN_PAID_3M" , "type": "INTEGER", "description": null} ,
     {"mode": "NULLABLE", "name": "ST_JN_YN_FLG" , "type": "STRING", "description": null} ,
     {"mode": "NULLABLE", "name": "ST_JN_DT" , "type": "STRING", "description": null} ,
     {"mode": "NULLABLE", "name": "ST_TOTAL_DVC_CNT" , "type": "INTEGER", "description": null} ,
     {"mode": "NULLABLE", "name": "ST_IM_DVC_CNT" , "type": "INTEGER", "description": null} ,
     {"mode": "NULLABLE", "name": "ST_IM_MB_DVC_CNT" , "type": "INTEGER", "description": null} ,
     {"mode": "NULLABLE", "name": "ST_IM_TB_DVC_CNT" , "type": "INTEGER", "description": null} ,
     {"mode": "NULLABLE", "name": "ST_IM_GEAR_DVC_CNT" , "type": "INTEGER", "description": null} ,
     {"mode": "NULLABLE", "name": "ST_MNFC_LO_MB_DVC_CNT" , "type": "INTEGER", "description": null} ,
     {"mode": "NULLABLE", "name": "ST_MNFC_LO_TB_DVC_CNT" , "type": "INTEGER", "description": null} ,
     {"mode": "NULLABLE", "name": "ST_MNFC_GL_MB_DVC_CNT" , "type": "INTEGER", "description": null} ,
     {"mode": "NULLABLE", "name": "ST_MNFC_CBRAND_DVC_CNT" , "type": "INTEGER", "description": null} ,
     {"mode": "NULLABLE", "name": "ST_VD_TV_DVC_CNT" , "type": "INTEGER", "description": null} ,
     {"mode": "NULLABLE", "name": "ST_CE_AIRCON_DVC_CNT" , "type": "INTEGER", "description": null} ,
     {"mode": "NULLABLE", "name": "ST_CE_REF_DVC_CNT" , "type": "INTEGER", "description": null} ,
     {"mode": "NULLABLE", "name": "ST_CE_WASHER_DVC_CNT" , "type": "INTEGER", "description": null} ,
     {"mode": "NULLABLE", "name": "ST_CE_DRYER_DVC_CNT" , "type": "INTEGER", "description": null} ,
     {"mode": "NULLABLE", "name": "ST_CE_AIRPUR_DVC_CNT" , "type": "INTEGER", "description": null} ,
     {"mode": "NULLABLE", "name": "ST_CE_AUDIO_DVC_CNT" , "type": "INTEGER", "description": null} ,
     {"mode": "NULLABLE", "name": "ST_CE_ROBOTCL_DVC_CNT" , "type": "INTEGER", "description": null} ,
     {"mode": "NULLABLE", "name": "ST_CE_OVEN_DVC_CNT" , "type": "INTEGER", "description": null} ,
     {"mode": "NULLABLE", "name": "ST_CE_STEAM_DVC_CNT" , "type": "INTEGER", "description": null} ,
     {"mode": "NULLABLE", "name": "ST_CE_COOKTOP_DVC_CNT" , "type": "INTEGER", "description": null} ,
     {"mode": "NULLABLE", "name": "ST_CE_DISHWASHER_DVC_CNT" , "type": "INTEGER", "description": null} ,
     {"mode": "NULLABLE", "name": "ST_LST_LO_MB_CRT_DT" , "type": "STRING", "description": null} ,
     {"mode": "NULLABLE", "name": "ST_LST_LO_TB_CRT_DT" , "type": "STRING", "description": null} ,
     {"mode": "NULLABLE", "name": "ST_LST_GL_MB_CRT_DT" , "type": "STRING", "description": null} ,
     {"mode": "NULLABLE", "name": "ST_LST_CBRAND_CRT_DT" , "type": "STRING", "description": null} ,
     {"mode": "NULLABLE", "name": "LOYAL_COUPON_ALL_CNT" , "type": "INTEGER", "description": null} ,
     {"mode": "NULLABLE", "name": "LOYAL_COUPON_USED_CNT" , "type": "INTEGER", "description": null} ,
     {"mode": "NULLABLE", "name": "LOYAL_COUPON_VALID_CNT" , "type": "INTEGER", "description": null} ,
     {"mode": "NULLABLE", "name": "LOYAL_COUPON_ALL_CNT_3M" , "type": "INTEGER", "description": null} ,
     {"mode": "NULLABLE", "name": "LOYAL_COUPON_USED_CNT_3M" , "type": "INTEGER", "description": null} ,
     {"mode": "NULLABLE", "name": "LOYAL_COUPON_VALID_CNT_3M" , "type": "INTEGER", "description": null} ,
     {"mode": "NULLABLE", "name": "LOYAL_COUPON_LST_CRT_DT" , "type": "STRING", "description": null} ,
     {"mode": "NULLABLE", "name": "LOYAL_COUPON_LST_CRT_TERM" , "type": "INTEGER", "description": null} ,
     {"mode": "NULLABLE", "name": "AEDAT" , "type": "STRING", "description": null} ,
     {"mode": "NULLABLE", "name": "USER_NAME" , "type": "STRING", "description": null} ,
     {"mode": "NULLABLE", "name": "INSERT_DATEDAY_KEY" , "type": "INTEGER", "description": null} ,
     {"mode": "NULLABLE", "name": "INSERT_DAYTIME_KEY" , "type": "INTEGER", "description": null} ,
     {"mode": "NULLABLE", "name": "INSERT_FULLDATE" , "type": "DATETIME", "description": null} ,
     {"mode": "NULLABLE", "name": "UPDATE_DATEDAY_KEY" , "type": "INTEGER", "description": null} ,
     {"mode": "NULLABLE", "name": "UPDATE_DAYTIME_KEY" , "type": "INTEGER", "description": null} ,
     {"mode": "NULLABLE", "name": "UPDATE_FULLDATE" , "type": "DATETIME", "description": null}
]
